.....
----------------------------------------------------------------------
Ran 5 tests in 0.005s

OK
Name               Stmts   Miss Branch BrPart  Cover   Missing
--------------------------------------------------------------
Diplomacy.py          52      0     38      0   100%
TestDiplomacy.py      31      0      2      1    97%   56->exit
--------------------------------------------------------------
TOTAL                 83      0     40      1    99%