............
----------------------------------------------------------------------
Ran 12 tests in 0.001s

OK
Name               Stmts   Miss Branch BrPart  Cover   Missing
--------------------------------------------------------------
Diplomacy.py          53      0     30      2    98%   60->39, 68->39
TestDiplomacy.py      60      0      2      1    98%   106->exit
--------------------------------------------------------------
TOTAL                113      0     32      3    98%
